^E:\PROIECTE\PROJECTBOT\PROJECTBOT\PROJECTBOT\PBEDITOR\ADDOBJECTFORM.RESX
^E:\PROIECTE\PROJECTBOT\PROJECTBOT\PROJECTBOT\PBEDITOR\FORM1.RESX
^E:\PROIECTE\PROJECTBOT\PROJECTBOT\PROJECTBOT\PBEDITOR\SIZESETTING.RESX
